A Geographer’s introduction to GAMs
…
1. Data considerations

The first stage is simply to examine the data, particularly how
variables many vary over space and time. The code below examines the
data before undertaking some initial investigations.

# examine what is loaded 
chaco
#> Simple feature collection with 2000 features and 11 fields
#> Geometry type: POINT
#> Dimension:     XY
#> Bounding box:  xmin: 3780862 ymin: 8212925 xmax: 3994096 ymax: 8432313
#> Projected CRS: SIRGAS 2000 / Brazil Mercator
#> # A tibble: 2,000 × 12
#>       id  ndvi  tmax    pr month date        year   lon   lat        X        Y          geometry
#>  * <int> <dbl> <dbl> <int> <dbl> <date>     <dbl> <dbl> <dbl>    <dbl>    <dbl>       <POINT [m]>
#>  1     1 0.738  31.4   208    91 2020-01-01  2020 -52.7 -15.5 3919927. 8260790. (3919927 8260790)
#>  2     2 0.545  38.8   139    64 2017-10-01  2017 -52.0 -14.3 3994096. 8403808. (3994096 8403808)
#>  3     3 0.758  30     334    18 2013-12-01  2013 -53.5 -16.0 3836488. 8212925. (3836488 8212925)
#>  4     4 0.652  28.7     0   119 2022-05-01  2022 -53.2 -15.0 3864301. 8327636. (3864301 8327636)
#>  5     5 0.774  31.8    69    94 2020-04-01  2020 -52.8 -15.1 3910656. 8308557. (3910656 8308557)
#>  6     6 0.714  30     343    18 2013-12-01  2013 -53.2 -14.6 3864301. 8365752. (3864301 8365752)
#>  7     7 0.705  31.7    96    22 2014-04-01  2014 -53.2 -14.1 3864301. 8422815. (3864301 8422815)
#>  8     8 0.733  31.9   127    79 2019-01-01  2019 -52.3 -14.9 3966282. 8337171. (3966282 8337171)
#>  9     9 0.611  30.1     0     9 2013-03-01  2013 -53.9 -14.4 3790133. 8394299. (3790133 8394299)
#> 10    10 0.427  35       5    99 2020-09-01  2020 -52.8 -15.2 3910656. 8299011. (3910656 8299011)
#> # ℹ 1,990 more rows
…
